<svg xmlns="http://www.w3.org/2000/svg" width="16" height="9">
    <path fill='#ffffff' fill-rule="evenodd" d="M7.204 8.674L.325 1.882a1.097 1.097 0 0 1 0-1.564 1.13 1.13 0 0 1 1.584 0l6.087 6.01 6.086-6.01a1.131 1.131 0 0 1 1.585 0 1.097 1.097 0 0 1 0 1.564L8.788 8.674a1.121 1.121 0 0 1-.792.324 1.12 1.12 0 0 1-.792-.324z" />
</svg>
