<svg width="40" height="36" viewBox="0 0 40 36" fill="none" xmlns="http://www.w3.org/2000/svg">
<rect width="40" height="36" fill="black" fill-opacity="0"/>
<rect y="5" width="22" height="31" rx="2" fill="#E3DE03"/>
<rect width="35" height="31" fill="black" fill-opacity="0" transform="translate(5)"/>
<path d="M24.8337 14.9258H23.667V22.9629H29.5003V21.8147H24.8337V14.9258ZM21.3337 14.9258L19.5836 17.911L17.8337 14.9258H16.667L19.0003 18.9443L16.667 22.9629H17.8337L19.5836 19.9777L21.3337 22.9629H22.5003L20.167 18.9443L22.5003 14.9258H21.3337Z" fill="black"/>
<path d="M36.5 11.4815H27.1667V8.03704L20.1667 0H7.33333C6.04997 0 5 1.0333 5 2.2963V28.7037C5 29.9666 6.04997 31 7.33333 31H24.8333C26.1166 31 27.1667 29.9666 27.1667 28.7037V26.4074H36.5C38.4834 26.4074 40 24.9148 40 22.963V14.9259C40 12.974 38.4834 11.4815 36.5 11.4815V11.4815ZM20.1667 1.72219L25.65 8.03704H21.3333C20.75 8.03704 20.1667 7.46299 20.1667 6.88889V1.72219ZM26 28.7036C26 29.2777 25.5333 29.8518 24.8333 29.8518H7.33333C6.75003 29.8518 6.16667 29.3925 6.16667 28.7036V2.2963C6.16667 1.72225 6.63333 1.14815 7.33333 1.14815H19V6.88889C19 8.15188 20.05 9.18519 21.3333 9.18519H26V11.4815H16.6667C14.6833 11.4815 13.1667 12.974 13.1667 14.9259V22.963C13.1667 24.9148 14.6833 26.4074 16.6667 26.4074H26V28.7036ZM38.8333 22.963C38.8333 24.2259 37.7833 25.2593 36.5 25.2593H16.6667C15.3833 25.2593 14.3333 24.2259 14.3333 22.963V14.9259C14.3333 13.6629 15.3833 12.6296 16.6667 12.6296H36.5C37.7833 12.6296 38.8333 13.6629 38.8333 14.9259V22.963Z" fill="black"/>
<path d="M33.0003 16.0739H34.167C34.867 16.0739 35.3337 16.648 35.3337 17.2221H36.5003C36.5003 15.9591 35.4503 14.9258 34.167 14.9258H33.0003C31.717 14.9258 30.667 15.9591 30.667 17.2221C30.667 18.485 31.717 19.5184 33.0003 19.5184H34.167C34.867 19.5184 35.3337 19.9776 35.3337 20.6665C35.3337 21.3554 34.867 21.8147 34.167 21.8147H33.0003C32.3003 21.8147 31.8337 21.2406 31.8337 20.6665H30.667C30.667 21.9295 31.717 22.9628 33.0003 22.9628H34.167C35.4503 22.9628 36.5003 21.9295 36.5003 20.6665C36.5003 19.4036 35.4503 18.3702 34.167 18.3702H33.0003C32.3003 18.3702 31.8337 17.911 31.8337 17.2221C31.8337 16.5332 32.3003 16.0739 33.0003 16.0739Z" fill="black"/>
</svg>
